P2/COUNTER8_mapped.vcd
$date
	Tue Dec 15 16:49:00 2020
$end
$version
	QuestaSim Version 10.6c_1
$end
$timescale
	1ps
$end

$scope module tb_counter $end

$scope module dut $end
$var wire 1 ! N13 $end
$var wire 1 " N14 $end
$var wire 1 # N15 $end
$var wire 1 $ N16 $end
$var wire 1 % N17 $end
$var wire 1 & N18 $end
$var wire 1 ' N19 $end
$var wire 1 ( N20 $end
$var wire 1 ) n9 $end
$var wire 1 * n10 $end
$var wire 1 + n11 $end
$var wire 1 , n12 $end
$var wire 1 - n13 $end
$var wire 1 . n14 $end
$var wire 1 / n15 $end
$var wire 1 0 n16 $end
$var wire 1 1 n17 $end
$var wire 1 2 n18 $end
$var wire 1 3 n19 $end
$var wire 1 4 n20 $end
$var wire 1 5 n21 $end
$var wire 1 6 n22 $end
$var wire 1 7 n23 $end
$var wire 1 8 Clk $end
$var wire 1 9 Reset $end
$var wire 1 : Start $end
$var wire 1 ; Count [7] $end
$var wire 1 < Count [6] $end
$var wire 1 = Count [5] $end
$var wire 1 > Count [4] $end
$var wire 1 ? Count [3] $end
$var wire 1 @ Count [2] $end
$var wire 1 A Count [1] $end
$var wire 1 B Count [0] $end
$upscope $end
$upscope $end
$enddefinitions $end
#0
$dumpvars
x!
x"
x#
x$
x%
x&
x'
x(
x)
x*
x+
x,
x-
x.
x/
x0
x1
x2
x3
x4
x5
x6
x7
08
19
0:
xB
xA
x@
x?
x>
x=
x<
x;
$end
#218
1*
#791
0)
#1290
0<
0>
0@
#1405
0A
#1408
0;
0=
0?
#1454
0B
#1714
15
16
17
#1736
1!
#1758
1+
#1960
0"
#2039
12
11
#2046
1/
#2113
0.
00
#2126
04
#2382
0'
0%
#2391
0#
#2492
1-
#2493
13
1,
#2705
0&
#2706
0$
#2740
0(
#5000
18
#10000
08
#15000
18
#20000
08
#25000
18
#30000
08
#35000
18
#40000
08
#45000
18
#50000
08
#55000
18
#60000
08
#65000
18
#70000
08
#75000
18
#80000
08
#85000
18
#90000
08
#95000
18
#100000
08
09
#100994
1)
#105000
18
#105736
1B
#105920
0+
#105957
0!
#106219
1"
#110000
08
#115000
18
#115661
1A
#115806
0B
#116088
1!
#120000
08
#125000
18
#125736
1B
#125957
0!
#126089
0/
#126459
1#
#126608
1+
#126810
0"
#130000
08
#135000
18
#135511
1@
#135671
05
#135756
0A
#135806
0B
#136088
1!
#136239
1.
#136397
1/
#136419
0,
#136544
0#
#136708
1$
#136943
0.
#137303
1#
#137323
1,
#137536
0$
#140000
08
#145000
18
#145736
1B
#145920
0+
#145957
0!
#146219
1"
#150000
08
#155000
18
#155661
1A
#155806
0B
#156088
1!
#160000
08
#165000
18
#165736
1B
#165957
0!
#166089
0/
#166608
1+
#166693
1.
#166810
0"
#166873
0,
#166998
0#
#167162
1$
#170000
08
#175000
18
#175648
0@
#175667
1?
#175756
0A
#175806
0B
#175870
15
#175964
01
#176088
1!
#176269
0.
#176341
1%
#176348
1,
#176397
1/
#176561
0$
#176969
11
#177139
0,
#177312
0%
#177428
1$
#180000
08
#185000
18
#185736
1B
#185920
0+
#185957
0!
#186219
1"
#190000
08
#195000
18
#195661
1A
#195806
0B
#196088
1!
#200000
08
1:
#200127
0*
#200178
0!
0$
#200540
1+
#200742
0"
#205000
18
#205756
0A
#205760
0?
#206083
1,
#210000
08
#215000
18
#220000
08
0:
#220218
1*
#220258
1!
#225000
18
#225736
1B
#225920
0+
#225957
0!
#226219
1"
#230000
08
#235000
18
#235661
1A
#235806
0B
#236088
1!
#240000
08
#245000
18
#245736
1B
#245957
0!
#246089
0/
#246459
1#
#246608
1+
#246810
0"
#250000
08
#255000
18
#255511
1@
#255671
05
#255756
0A
#255806
0B
#256088
1!
#256239
1.
#256397
1/
#256419
0,
#256544
0#
#256708
1$
#256943
0.
#257303
1#
#257323
1,
#257536
0$
#260000
08
#265000
18
#265736
1B
#265920
0+
#265957
0!
#266219
1"
#270000
08
#275000
18
#275661
1A
#275806
0B
#276088
1!
#280000
08
#285000
18
#285736
1B
#285957
0!
#286089
0/
#286608
1+
#286693
1.
#286810
0"
#286873
0,
#286998
0#
#287162
1$
#290000
08
#295000
18
#295648
0@
#295667
1?
#295756
0A
#295806
0B
#295870
15
#295964
01
#296088
1!
#296269
0.
#296341
1%
#296348
1,
#296397
1/
#296561
0$
#296969
11
#297139
0,
#297312
0%
#297428
1$
#300000
08
#305000
18
#305736
1B
#305920
0+
#305957
0!
#306219
1"
#310000
08
#315000
18
#315661
1A
#315806
0B
#316088
1!
#320000
08
#325000
18
#325736
1B
#325957
0!
#326089
0/
#326459
1#
#326608
1+
#326810
0"
#330000
08
#335000
18
#335511
1@
#335671
05
#335756
0A
#335806
0B
#336088
1!
#336239
1.
#336397
1/
#336544
0#
#336629
01
#336943
0.
#337006
1%
#337013
1,
#337226
0$
#337303
1#
#337643
11
#337813
0,
#337986
0%
#338102
1$
#340000
08
#345000
18
#345736
1B
#345920
0+
#345957
0!
#346219
1"
#350000
08
#355000
18
#355661
1A
#355806
0B
#356088
1!
#360000
08
#365000
18
#365736
1B
#365957
0!
#366089
0/
#366608
1+
#366693
1.
#366810
0"
#366998
0#
#367083
01
#367460
1%
#367467
1,
#367680
0$
#370000
08
#375000
18
#375511
1>
#375648
0@
#375671
06
#375756
0A
#375760
0?
#375806
0B
#375870
15
#376088
1!
#376239
10
#376269
0.
#376391
11
#376397
1/
#376419
0-
#376544
0%
#376708
1&
#376934
00
#377293
1%
#377313
1-
#377526
0&
#380000
08
#385000
18
#385736
1B
#385920
0+
#385957
0!
#386219
1"
#390000
08
#395000
18
#395661
1A
#395806
0B
#396088
1!
#400000
08
#405000
18
#405736
1B
#405957
0!
#406089
0/
#406459
1#
#406608
1+
#406810
0"
#410000
08
#415000
18
#415511
1@
#415671
05
#415756
0A
#415806
0B
#416088
1!
#416239
1.
#416397
1/
#416419
0,
#416544
0#
#416708
1$
#416943
0.
#417303
1#
#417323
1,
#417536
0$
#420000
08
#425000
18
#425736
1B
#425920
0+
#425957
0!
#426219
1"
#430000
08
#435000
18
#435661
1A
#435806
0B
#436088
1!
#440000
08
#445000
18
#445736
1B
#445957
0!
#446089
0/
#446608
1+
#446693
1.
#446810
0"
#446873
0,
#446998
0#
#447162
1$
#450000
08
#455000
18
#455648
0@
#455667
1?
#455756
0A
#455806
0B
#455870
15
#455964
01
#456088
1!
#456269
0.
#456348
1,
#456397
1/
#456561
0$
#456576
10
#456756
0-
#456881
0%
#456969
11
#457045
1&
#457139
0,
#457428
1$
#457512
00
#457871
1%
#457891
1-
#458104
0&
#460000
08
#465000
18
#465736
1B
#465920
0+
#465957
0!
#466219
1"
#470000
08
#475000
18
#475661
1A
#475806
0B
#476088
1!
#480000
08
#485000
18
#485736
1B
#485957
0!
#486089
0/
#486459
1#
#486608
1+
#486810
0"
#490000
08
#495000
18
#495511
1@
#495671
05
#495756
0A
#495806
0B
#496088
1!
#496239
1.
#496397
1/
#496544
0#
#496629
01
#496943
0.
#497013
1,
#497226
0$
#497241
10
#497303
1#
#497421
0-
#497546
0%
#497643
11
#497710
1&
#497813
0,
#498102
1$
#498186
00
#498545
1%
#498565
1-
#498778
0&
#500000
08
#505000
18
#505736
1B
#505920
0+
#505957
0!
#506219
1"
#510000
08
#515000
18
#515661
1A
#515806
0B
#516088
1!
#520000
08
#525000
18
#525736
1B
#525957
0!
#526089
0/
#526608
1+
#526693
1.
#526810
0"
#526998
0#
#527083
01
#527467
1,
#527680
0$
#527695
10
#527875
0-
#528000
0%
#528164
1&
#530000
08
#535000
18
#535648
0>
0@
#535667
1=
#535756
0A
#535760
0?
#535806
0B
#535870
15
16
#535964
02
#536088
1!
#536269
0.
00
#536341
1'
#536348
1-
#536391
11
#536397
1/
#536561
0&
#536968
12
#537138
0-
#537311
0'
#537427
1&
#540000
08
#545000
18
#545736
1B
#545920
0+
#545957
0!
#546219
1"
#550000
08
#555000
18
#555661
1A
#555806
0B
#556088
1!
#560000
08
#565000
18
#565736
1B
#565957
0!
#566089
0/
#566459
1#
#566608
1+
#566810
0"
#570000
08
#575000
18
#575511
1@
#575671
05
#575756
0A
#575806
0B
#576088
1!
#576239
1.
#576397
1/
#576419
0,
#576544
0#
#576708
1$
#576943
0.
#577303
1#
#577323
1,
#577536
0$
#580000
08
#585000
18
#585736
1B
#585920
0+
#585957
0!
#586219
1"
#590000
08
#595000
18
#595661
1A
#595806
0B
#596088
1!
#600000
08
#605000
18
#605736
1B
#605957
0!
#606089
0/
#606608
1+
#606693
1.
#606810
0"
#606873
0,
#606998
0#
#607162
1$
#610000
08
#615000
18
#615648
0@
#615667
1?
#615756
0A
#615806
0B
#615870
15
#615964
01
#616088
1!
#616269
0.
#616341
1%
#616348
1,
#616397
1/
#616561
0$
#616969
11
#617139
0,
#617312
0%
#617428
1$
#620000
08
#625000
18
#625736
1B
#625920
0+
#625957
0!
#626219
1"
#630000
08
#635000
18
#635661
1A
#635806
0B
#636088
1!
#640000
08
#645000
18
#645736
1B
#645957
0!
#646089
0/
#646459
1#
#646608
1+
#646810
0"
#650000
08
#655000
18
#655511
1@
#655671
05
#655756
0A
#655806
0B
#656088
1!
#656239
1.
#656397
1/
#656544
0#
#656629
01
#656943
0.
#657006
1%
#657013
1,
#657226
0$
#657303
1#
#657643
11
#657813
0,
#657986
0%
#658102
1$
#660000
08
#665000
18
#665736
1B
#665920
0+
#665957
0!
#666219
1"
#670000
08
#675000
18
#675661
1A
#675806
0B
#676088
1!
#680000
08
#685000
18
#685736
1B
#685957
0!
#686089
0/
#686608
1+
#686693
1.
#686810
0"
#686998
0#
#687083
01
#687460
1%
#687467
1,
#687680
0$
#690000
08
#695000
18
#695511
1>
#695648
0@
#695671
06
#695756
0A
#695760
0?
#695806
0B
#695870
15
#696088
1!
#696239
10
#696269
0.
#696391
11
#696397
1/
#696544
0%
#696629
02
#696934
00
#697006
1'
#697013
1-
#697226
0&
#697293
1%
#697633
12
#697803
0-
#697976
0'
#698092
1&
#700000
08
#705000
18
#705736
1B
#705920
0+
#705957
0!
#706219
1"
#710000
08
#715000
18
#715661
1A
#715806
0B
#716088
1!
#720000
08
#725000
18
#725736
1B
#725957
0!
#726089
0/
#726459
1#
#726608
1+
#726810
0"
#730000
08
#735000
18
#735511
1@
#735671
05
#735756
0A
#735806
0B
#736088
1!
#736239
1.
#736397
1/
#736419
0,
#736544
0#
#736708
1$
#736943
0.
#737303
1#
#737323
1,
#737536
0$
#740000
08
#745000
18
#745736
1B
#745920
0+
#745957
0!
#746219
1"
#750000
08
#755000
18
#755661
1A
#755806
0B
#756088
1!
#760000
08
#765000
18
#765736
1B
#765957
0!
#766089
0/
#766608
1+
#766693
1.
#766810
0"
#766873
0,
#766998
0#
#767162
1$
#770000
08
#775000
18
#775648
0@
#775667
1?
#775756
0A
#775806
0B
#775870
15
#775964
01
#776088
1!
#776269
0.
#776348
1,
#776397
1/
#776561
0$
#776576
10
#776881
0%
#776966
02
#776969
11
#777139
0,
#777343
1'
#777350
1-
#777428
1$
#777512
00
#777563
0&
#777871
1%
#778211
12
#778381
0-
#778554
0'
#778670
1&
#780000
08
#785000
18
#785736
1B
#785920
0+
#785957
0!
#786219
1"
#790000
08
#795000
18
#795661
1A
#795806
0B
#796088
1!
#800000
08
#805000
18
#805736
1B
#805957
0!
#806089
0/
#806459
1#
#806608
1+
#806810
0"
#810000
08
#815000
18
#815511
1@
#815671
05
#815756
0A
#815806
0B
#816088
1!
#816239
1.
#816397
1/
#816544
0#
#816629
01
#816943
0.
#817013
1,
#817226
0$
#817241
10
#817303
1#
#817546
0%
#817631
02
#817643
11
#817813
0,
#818008
1'
#818015
1-
#818102
1$
#818186
00
#818228
0&
#818545
1%
#818885
12
#819055
0-
#819228
0'
#819344
1&
#820000
08
#825000
18
#825736
1B
#825920
0+
#825957
0!
#826219
1"
#830000
08
#835000
18
#835661
1A
#835806
0B
#836088
1!
#840000
08
#845000
18
#845736
1B
#845957
0!
#846089
0/
#846608
1+
#846693
1.
#846810
0"
#846998
0#
#847083
01
#847467
1,
#847680
0$
#847695
10
#848000
0%
#848085
02
#848462
1'
#848469
1-
#848682
0&
#850000
08
#855000
18
#855511
1<
#855648
0>
0@
#855671
07
#855756
0A
#855760
0=
0?
#855806
0B
#855870
15
16
#856088
1!
#856259
14
#856269
0.
00
#856391
12
11
#856397
1/
#856524
03
#856568
0'
#856817
1(
#856946
04
#857309
1'
#857313
13
#857560
0(
#860000
08
#865000
18
#865736
1B
#865920
0+
#865957
0!
#866219
1"
#870000
08
#875000
18
#875661
1A
#875806
0B
#876088
1!
#880000
08
#885000
18
#885736
1B
#885957
0!
#886089
0/
#886459
1#
#886608
1+
#886810
0"
#890000
08
#895000
18
#895511
1@
#895671
05
#895756
0A
#895806
0B
#896088
1!
#896239
1.
#896397
1/
#896419
0,
#896544
0#
#896708
1$
#896943
0.
#897303
1#
#897323
1,
#897536
0$
#900000
08
#905000
18
#905736
1B
#905920
0+
#905957
0!
#906219
1"
#910000
08
#915000
18
#915661
1A
#915806
0B
#916088
1!
#920000
08
#925000
18
#925736
1B
#925957
0!
#926089
0/
#926608
1+
#926693
1.
#926810
0"
#926873
0,
#926998
0#
#927162
1$
#930000
08
#935000
18
#935648
0@
#935667
1?
#935756
0A
#935806
0B
#935870
15
#935964
01
#936088
1!
#936269
0.
#936341
1%
#936348
1,
#936397
1/
#936561
0$
#936969
11
#937139
0,
#937312
0%
#937428
1$
#940000
08
#945000
18
#945736
1B
#945920
0+
#945957
0!
#946219
1"
#950000
08
#955000
18
#955661
1A
#955806
0B
#956088
1!
#960000
08
#965000
18
#965736
1B
#965957
0!
#966089
0/
#966459
1#
#966608
1+
#966810
0"
#970000
08
#975000
18
#975511
1@
#975671
05
#975756
0A
#975806
0B
#976088
1!
#976239
1.
#976397
1/
#976544
0#
#976629
01
#976943
0.
#977006
1%
#977013
1,
#977226
0$
#977303
1#
#977643
11
#977813
0,
#977986
0%
#978102
1$
#980000
08
#985000
18
#985736
1B
#985920
0+
#985957
0!
#986219
1"
#990000
08
#995000
18
#995661
1A
#995806
0B
#996088
1!
#1000000
08
#1005000
18
#1005736
1B
#1005957
0!
#1006089
0/
#1006608
1+
#1006693
1.
#1006810
0"
#1006998
0#
#1007083
01
#1007460
1%
#1007467
1,
#1007680
0$
#1010000
08
#1015000
18
#1015511
1>
#1015648
0@
#1015671
06
#1015756
0A
#1015760
0?
#1015806
0B
#1015870
15
#1016088
1!
#1016239
10
#1016269
0.
#1016391
11
#1016397
1/
#1016419
0-
#1016544
0%
#1016708
1&
#1016934
00
#1017293
1%
#1017313
1-
#1017526
0&
#1020000
08
#1025000
18
#1025736
1B
#1025920
0+
#1025957
0!
#1026219
1"
#1030000
08
#1035000
18
#1035661
1A
#1035806
0B
#1036088
1!
#1040000
08
#1045000
18
#1045736
1B
#1045957
0!
#1046089
0/
#1046459
1#
#1046608
1+
#1046810
0"
#1050000
08
#1055000
18
#1055511
1@
#1055671
05
#1055756
0A
#1055806
0B
#1056088
1!
#1056239
1.
#1056397
1/
#1056419
0,
#1056544
0#
#1056708
1$
#1056943
0.
#1057303
1#
#1057323
1,
#1057536
0$
#1060000
08
#1065000
18
#1065736
1B
#1065920
0+
#1065957
0!
#1066219
1"
#1070000
08
#1075000
18
#1075661
1A
#1075806
0B
#1076088
1!
#1080000
08
#1085000
18
#1085736
1B
#1085957
0!
#1086089
0/
#1086608
1+
#1086693
1.
#1086810
0"
#1086873
0,
#1086998
0#
#1087162
1$
#1090000
08
#1095000
18
#1095648
0@
#1095667
1?
#1095756
0A
#1095806
0B
#1095870
15
#1095964
01
#1096088
1!
#1096269
0.
#1096348
1,
#1096397
1/
#1096561
0$
#1096576
10
#1096756
0-
#1096881
0%
#1096969
11
#1097045
1&
#1097139
0,
#1097428
1$
#1097512
00
#1097871
1%
#1097891
1-
#1098104
0&
#1100000
08
#1105000
18
#1105736
1B
#1105920
0+
#1105957
0!
#1106219
1"
#1110000
08
#1115000
18
#1115661
1A
#1115806
0B
#1116088
1!
#1120000
08
#1125000
18
#1125736
1B
#1125957
0!
#1126089
0/
#1126459
1#
#1126608
1+
#1126810
0"
#1130000
08
#1135000
18
#1135511
1@
#1135671
05
#1135756
0A
#1135806
0B
#1136088
1!
#1136239
1.
#1136397
1/
#1136544
0#
#1136629
01
#1136943
0.
#1137013
1,
#1137226
0$
#1137241
10
#1137303
1#
#1137421
0-
#1137546
0%
#1137643
11
#1137710
1&
#1137813
0,
#1138102
1$
#1138186
00
#1138545
1%
#1138565
1-
#1138778
0&
#1140000
08
#1145000
18
#1145736
1B
#1145920
0+
#1145957
0!
#1146219
1"
#1150000
08
#1155000
18
#1155661
1A
#1155806
0B
#1156088
1!
#1160000
08
#1165000
18
#1165736
1B
#1165957
0!
#1166089
0/
#1166608
1+
#1166693
1.
#1166810
0"
#1166998
0#
#1167083
01
#1167467
1,
#1167680
0$
#1167695
10
#1167875
0-
#1168000
0%
#1168164
1&
#1170000
08
#1175000
18
#1175648
0>
0@
#1175667
1=
#1175756
0A
#1175760
0?
#1175806
0B
#1175870
15
16
#1175964
02
#1176088
1!
#1176269
0.
00
#1176348
1-
#1176391
11
#1176397
1/
#1176561
0&
#1176597
14
#1176862
03
#1176906
0'
#1176968
12
#1177138
0-
#1177155
1(
#1177427
1&
#1177523
04
#1177886
1'
#1177890
13
#1178137
0(
#1180000
08
#1185000
18
#1185736
1B
#1185920
0+
#1185957
0!
#1186219
1"
#1190000
08
#1195000
18
#1195661
1A
#1195806
0B
#1196088
1!
#1200000
08
#1205000
18
#1205736
1B
#1205957
0!
#1206089
0/
#1206459
1#
#1206608
1+
#1206810
0"
#1210000
08
#1215000
18
#1215511
1@
#1215671
05
#1215756
0A
#1215806
0B
#1216088
1!
#1216239
1.
#1216397
1/
#1216419
0,
#1216544
0#
#1216708
1$
#1216943
0.
#1217303
1#
#1217323
1,
#1217536
0$
#1220000
08
#1225000
18
#1225736
1B
#1225920
0+
#1225957
0!
#1226219
1"
#1230000
08
#1235000
18
#1235661
1A
#1235806
0B
#1236088
1!
#1240000
08
#1245000
18
#1245736
1B
#1245957
0!
#1246089
0/
#1246608
1+
#1246693
1.
#1246810
0"
#1246873
0,
#1246998
0#
#1247162
1$
#1250000
08
#1255000
18
#1255648
0@
#1255667
1?
#1255756
0A
#1255806
0B
#1255870
15
#1255964
01
#1256088
1!
#1256269
0.
#1256341
1%
#1256348
1,
#1256397
1/
#1256561
0$
#1256969
11
#1257139
0,
#1257312
0%
#1257428
1$
#1260000
08
#1265000
18
#1265736
1B
#1265920
0+
#1265957
0!
#1266219
1"
#1270000
08
#1275000
18
#1275661
1A
#1275806
0B
#1276088
1!
#1280000
08
#1285000
18
#1285736
1B
#1285957
0!
#1286089
0/
#1286459
1#
#1286608
1+
#1286810
0"
#1290000
08
#1295000
18
#1295511
1@
#1295671
05
#1295756
0A
#1295806
0B
#1296088
1!
#1296239
1.
#1296397
1/
#1296544
0#
#1296629
01
#1296943
0.
#1297006
1%
#1297013
1,
#1297226
0$
#1297303
1#
#1297643
11
#1297813
0,
#1297986
0%
#1298102
1$
#1300000
08
#1305000
18
#1305736
1B
#1305920
0+
#1305957
0!
#1306219
1"
#1310000
08
#1315000
18
#1315661
1A
#1315806
0B
#1316088
1!
#1320000
08
#1325000
18
#1325736
1B
#1325957
0!
#1326089
0/
#1326608
1+
#1326693
1.
#1326810
0"
#1326998
0#
#1327083
01
#1327460
1%
#1327467
1,
#1327680
0$
#1330000
08
#1335000
18
#1335511
1>
#1335648
0@
#1335671
06
#1335756
0A
#1335760
0?
#1335806
0B
#1335870
15
#1336088
1!
#1336239
10
#1336269
0.
#1336391
11
#1336397
1/
#1336544
0%
#1336629
02
#1336934
00
#1337013
1-
#1337226
0&
#1337262
14
#1337293
1%
#1337527
03
#1337571
0'
#1337633
12
#1337803
0-
#1337820
1(
#1338092
1&
#1338188
04
#1338551
1'
#1338555
13
#1338802
0(
#1340000
08
#1345000
18
#1345736
1B
#1345920
0+
#1345957
0!
#1346219
1"
#1350000
08
#1355000
18
#1355661
1A
#1355806
0B
#1356088
1!
#1360000
08
#1365000
18
#1365736
1B
#1365957
0!
#1366089
0/
#1366459
1#
#1366608
1+
#1366810
0"
#1370000
08
#1375000
18
#1375511
1@
#1375671
05
#1375756
0A
#1375806
0B
#1376088
1!
#1376239
1.
#1376397
1/
#1376419
0,
#1376544
0#
#1376708
1$
#1376943
0.
#1377303
1#
#1377323
1,
#1377536
0$
#1380000
08
#1385000
18
#1385736
1B
#1385920
0+
#1385957
0!
#1386219
1"
#1390000
08
#1395000
18
#1395661
1A
#1395806
0B
#1396088
1!
#1400000
08
#1405000
18
#1405736
1B
#1405957
0!
#1406089
0/
#1406608
1+
#1406693
1.
#1406810
0"
#1406873
0,
#1406998
0#
#1407162
1$
#1410000
08
#1415000
18
#1415648
0@
#1415667
1?
#1415756
0A
#1415806
0B
#1415870
15
#1415964
01
#1416088
1!
#1416269
0.
#1416348
1,
#1416397
1/
#1416561
0$
#1416576
10
#1416881
0%
#1416966
02
#1416969
11
#1417139
0,
#1417350
1-
#1417428
1$
#1417512
00
#1417563
0&
#1417599
14
#1417864
03
#1417871
1%
#1417908
0'
#1418157
1(
#1418211
12
#1418381
0-
#1418670
1&
#1418766
04
#1419129
1'
#1419133
13
#1419380
0(
#1420000
08
#1425000
18
#1425736
1B
#1425920
0+
#1425957
0!
#1426219
1"
#1430000
08
#1435000
18
#1435661
1A
#1435806
0B
#1436088
1!
#1440000
08
#1445000
18
#1445736
1B
#1445957
0!
#1446089
0/
#1446459
1#
#1446608
1+
#1446810
0"
#1450000
08
#1455000
18
#1455511
1@
#1455671
05
#1455756
0A
#1455806
0B
#1456088
1!
#1456239
1.
#1456397
1/
#1456544
0#
#1456629
01
#1456943
0.
#1457013
1,
#1457226
0$
#1457241
10
#1457303
1#
#1457546
0%
#1457631
02
#1457643
11
#1457813
0,
#1458015
1-
#1458102
1$
#1458186
00
#1458228
0&
#1458264
14
#1458529
03
#1458545
1%
#1458573
0'
#1458822
1(
#1458885
12
#1459055
0-
#1459344
1&
#1459440
04
#1459803
1'
#1459807
13
#1460000
08
#1460054
0(
#1465000
18
#1465736
1B
#1465920
0+
#1465957
0!
#1466219
1"
#1470000
08
#1475000
18
#1475661
1A
#1475806
0B
#1476088
1!
#1480000
08
#1485000
18
#1485736
1B
#1485957
0!
#1486089
0/
#1486608
1+
#1486693
1.
#1486810
0"
#1486998
0#
#1487083
01
#1487467
1,
#1487680
0$
#1487695
10
#1488000
0%
#1488085
02
#1488469
1-
#1488682
0&
#1488718
14
#1488983
03
#1489027
0'
#1489276
1(
#1490000
08
#1495000
18
#1495648
0<
0>
0@
#1495667
1;
#1495756
0A
#1495760
0=
0?
#1495806
0B
#1495870
15
16
17
#1495936
0(
#1496088
1!
#1496269
0.
00
#1496282
04
#1496391
12
11
#1496397
1/
#1496688
1(
#1500000
08
#1505000
18
#1505736
1B
#1505920
0+
#1505957
0!
#1506219
1"
#1510000
08
#1515000
18
#1515661
1A
#1515806
0B
#1516088
1!
#1520000
08
#1525000
18
#1525736
1B
#1525957
0!
#1526089
0/
#1526459
1#
#1526608
1+
#1526810
0"
#1530000
08
#1535000
18
#1535511
1@
#1535671
05
#1535756
0A
#1535806
0B
#1536088
1!
#1536239
1.
#1536397
1/
#1536419
0,
#1536544
0#
#1536708
1$
#1536943
0.
#1537303
1#
#1537323
1,
#1537536
0$
#1540000
08
#1545000
18
#1545736
1B
#1545920
0+
#1545957
0!
#1546219
1"
#1550000
08
#1555000
18
#1555661
1A
#1555806
0B
#1556088
1!
#1560000
08
#1565000
18
#1565736
1B
#1565957
0!
#1566089
0/
#1566608
1+
#1566693
1.
#1566810
0"
#1566873
0,
#1566998
0#
#1567162
1$
#1570000
08
#1575000
18
#1575648
0@
#1575667
1?
#1575756
0A
#1575806
0B
#1575870
15
#1575964
01
#1576088
1!
#1576269
0.
#1576341
1%
#1576348
1,
#1576397
1/
#1576561
0$
#1576969
11
#1577139
0,
#1577312
0%
#1577428
1$
#1580000
08
#1585000
18
#1585736
1B
#1585920
0+
#1585957
0!
#1586219
1"
#1590000
08
#1595000
18
#1595661
1A
#1595806
0B
#1596088
1!
#1600000
08
#1605000
18
#1605736
1B
#1605957
0!
#1606089
0/
#1606459
1#
#1606608
1+
#1606810
0"
#1610000
08
#1615000
18
#1615511
1@
#1615671
05
#1615756
0A
#1615806
0B
#1616088
1!
#1616239
1.
#1616397
1/
#1616544
0#
#1616629
01
#1616943
0.
#1617006
1%
#1617013
1,
#1617226
0$
#1617303
1#
#1617643
11
#1617813
0,
#1617986
0%
#1618102
1$
#1620000
08
#1625000
18
#1625736
1B
#1625920
0+
#1625957
0!
#1626219
1"
#1630000
08
#1635000
18
#1635661
1A
#1635806
0B
#1636088
1!
#1640000
08
#1645000
18
#1645736
1B
#1645957
0!
#1646089
0/
#1646608
1+
#1646693
1.
#1646810
0"
#1646998
0#
#1647083
01
#1647460
1%
#1647467
1,
#1647680
0$
#1650000
08
#1655000
18
#1655511
1>
#1655648
0@
#1655671
06
#1655756
0A
#1655760
0?
#1655806
0B
#1655870
15
#1656088
1!
#1656239
10
#1656269
0.
#1656391
11
#1656397
1/
#1656419
0-
#1656544
0%
#1656708
1&
#1656934
00
#1657293
1%
#1657313
1-
#1657526
0&
#1660000
08
#1665000
18
#1665736
1B
#1665920
0+
#1665957
0!
#1666219
1"
#1670000
08
#1675000
18
#1675661
1A
#1675806
0B
#1676088
1!
#1680000
08
#1685000
18
#1685736
1B
#1685957
0!
#1686089
0/
#1686459
1#
#1686608
1+
#1686810
0"
#1690000
08
#1695000
18
#1695511
1@
#1695671
05
#1695756
0A
#1695806
0B
#1696088
1!
#1696239
1.
#1696397
1/
#1696419
0,
#1696544
0#
#1696708
1$
#1696943
0.
#1697303
1#
#1697323
1,
#1697536
0$
#1700000
08
#1705000
18
#1705736
1B
#1705920
0+
#1705957
0!
#1706219
1"
#1710000
08
#1715000
18
#1715661
1A
#1715806
0B
#1716088
1!
#1720000
08
#1725000
18
#1725736
1B
#1725957
0!
#1726089
0/
#1726608
1+
#1726693
1.
#1726810
0"
#1726873
0,
#1726998
0#
#1727162
1$
#1730000
08
#1735000
18
#1735648
0@
#1735667
1?
#1735756
0A
#1735806
0B
#1735870
15
#1735964
01
#1736088
1!
#1736269
0.
#1736348
1,
#1736397
1/
#1736561
0$
#1736576
10
#1736756
0-
#1736881
0%
#1736969
11
#1737045
1&
#1737139
0,
#1737428
1$
#1737512
00
#1737871
1%
#1737891
1-
#1738104
0&
#1740000
08
#1745000
18
#1745736
1B
#1745920
0+
#1745957
0!
#1746219
1"
#1750000
08
#1755000
18
#1755661
1A
#1755806
0B
#1756088
1!
#1760000
08
#1765000
18
#1765736
1B
#1765957
0!
#1766089
0/
#1766459
1#
#1766608
1+
#1766810
0"
#1770000
08
#1775000
18
#1775511
1@
#1775671
05
#1775756
0A
#1775806
0B
#1776088
1!
#1776239
1.
#1776397
1/
#1776544
0#
#1776629
01
#1776943
0.
#1777013
1,
#1777226
0$
#1777241
10
#1777303
1#
#1777421
0-
#1777546
0%
#1777643
11
#1777710
1&
#1777813
0,
#1778102
1$
#1778186
00
#1778545
1%
#1778565
1-
#1778778
0&
#1780000
08
#1785000
18
#1785736
1B
#1785920
0+
#1785957
0!
#1786219
1"
#1790000
08
#1795000
18
#1795661
1A
#1795806
0B
#1796088
1!
#1800000
08
#1805000
18
#1805736
1B
#1805957
0!
#1806089
0/
#1806608
1+
#1806693
1.
#1806810
0"
#1806998
0#
#1807083
01
#1807467
1,
#1807680
0$
#1807695
10
#1807875
0-
#1808000
0%
#1808164
1&
#1810000
08
#1815000
18
#1815648
0>
0@
#1815667
1=
#1815756
0A
#1815760
0?
#1815806
0B
#1815870
15
16
#1815964
02
#1816088
1!
#1816269
0.
00
#1816341
1'
#1816348
1-
#1816391
11
#1816397
1/
#1816561
0&
#1816968
12
#1817138
0-
#1817311
0'
#1817427
1&
#1820000
08
#1825000
18
#1825736
1B
#1825920
0+
#1825957
0!
#1826219
1"
#1830000
08
#1835000
18
#1835661
1A
#1835806
0B
#1836088
1!
#1840000
08
#1845000
18
#1845736
1B
#1845957
0!
#1846089
0/
#1846459
1#
#1846608
1+
#1846810
0"
#1850000
08
#1855000
18
#1855511
1@
#1855671
05
#1855756
0A
#1855806
0B
#1856088
1!
#1856239
1.
#1856397
1/
#1856419
0,
#1856544
0#
#1856708
1$
#1856943
0.
#1857303
1#
#1857323
1,
#1857536
0$
#1860000
08
#1865000
18
#1865736
1B
#1865920
0+
#1865957
0!
#1866219
1"
#1870000
08
#1875000
18
#1875661
1A
#1875806
0B
#1876088
1!
#1880000
08
#1885000
18
#1885736
1B
#1885957
0!
#1886089
0/
#1886608
1+
#1886693
1.
#1886810
0"
#1886873
0,
#1886998
0#
#1887162
1$
#1890000
08
#1895000
18
#1895648
0@
#1895667
1?
#1895756
0A
#1895806
0B
#1895870
15
#1895964
01
#1896088
1!
#1896269
0.
#1896341
1%
#1896348
1,
#1896397
1/
#1896561
0$
#1896969
11
#1897139
0,
#1897312
0%
#1897428
1$
#1900000
08
#1905000
18
#1905736
1B
#1905920
0+
#1905957
0!
#1906219
1"
#1910000
08
#1915000
18
#1915661
1A
#1915806
0B
#1916088
1!
#1920000
08
#1925000
18
#1925736
1B
#1925957
0!
#1926089
0/
#1926459
1#
#1926608
1+
#1926810
0"
#1930000
08
#1935000
18
#1935511
1@
#1935671
05
#1935756
0A
#1935806
0B
#1936088
1!
#1936239
1.
#1936397
1/
#1936544
0#
#1936629
01
#1936943
0.
#1937006
1%
#1937013
1,
#1937226
0$
#1937303
1#
#1937643
11
